-- Merging decision tree log ---
manifest
ADDED from C:\Samples\babylon\app\src\main\AndroidManifest.xml:2:1-26:12
INJECTED from C:\Samples\babylon\app\src\main\AndroidManifest.xml:2:1-26:12
INJECTED from C:\Samples\babylon\app\src\main\AndroidManifest.xml:2:1-26:12
INJECTED from C:\Samples\babylon\app\src\main\AndroidManifest.xml:2:1-26:12
MERGED from [com.android.support:design:27.1.0] C:\Users\rnedumar\.gradle\caches\transforms-1\files-1.1\design-27.1.0.aar\55dc3e4792178b9299c691c7a078a732\AndroidManifest.xml:17:1-22:12
MERGED from [com.android.support:appcompat-v7:27.1.1] C:\Users\rnedumar\.gradle\caches\transforms-1\files-1.1\appcompat-v7-27.1.1.aar\0b81465e7903dfa3812850c67ee4aaa1\AndroidManifest.xml:17:1-22:12
MERGED from [com.android.support.constraint:constraint-layout:1.1.2] C:\Users\rnedumar\.gradle\caches\transforms-1\files-1.1\constraint-layout-1.1.2.aar\07c3c4409d2669285c582bebdd2d3547\AndroidManifest.xml:2:1-11:12
MERGED from [com.android.support:cardview-v7:27.1.1] C:\Users\rnedumar\.gradle\caches\transforms-1\files-1.1\cardview-v7-27.1.1.aar\dd8ba7903e3bb86f20883e078aa971a2\AndroidManifest.xml:17:1-22:12
MERGED from [com.android.support:support-v4:27.1.0] C:\Users\rnedumar\.gradle\caches\transforms-1\files-1.1\support-v4-27.1.0.aar\887b3197ad5967848fb5eb17adb8645d\AndroidManifest.xml:17:1-22:12
MERGED from [com.android.support:recyclerview-v7:27.1.0] C:\Users\rnedumar\.gradle\caches\transforms-1\files-1.1\recyclerview-v7-27.1.0.aar\555a47c2d6088ea314aeda257d0a7278\AndroidManifest.xml:17:1-22:12
MERGED from [com.android.support:transition:27.1.0] C:\Users\rnedumar\.gradle\caches\transforms-1\files-1.1\transition-27.1.0.aar\aa0becf27235ebe5982931c4167c8d3f\AndroidManifest.xml:17:1-22:12
MERGED from [com.android.support:support-media-compat:27.1.0] C:\Users\rnedumar\.gradle\caches\transforms-1\files-1.1\support-media-compat-27.1.0.aar\8f5a8286efb61c13ad464b71321d6f85\AndroidManifest.xml:17:1-22:12
MERGED from [com.android.support:animated-vector-drawable:27.1.1] C:\Users\rnedumar\.gradle\caches\transforms-1\files-1.1\animated-vector-drawable-27.1.1.aar\deaa395a88113fc9b677b6ac4e70ef51\AndroidManifest.xml:17:1-22:12
MERGED from [com.android.support:support-vector-drawable:27.1.1] C:\Users\rnedumar\.gradle\caches\transforms-1\files-1.1\support-vector-drawable-27.1.1.aar\4f4992cda542fd844f737984031220e4\AndroidManifest.xml:17:1-22:12
MERGED from [com.android.support:support-fragment:27.1.1] C:\Users\rnedumar\.gradle\caches\transforms-1\files-1.1\support-fragment-27.1.1.aar\e3d07f5b88569d9a8126563661949de1\AndroidManifest.xml:17:1-22:12
MERGED from [com.android.support:support-core-ui:27.1.1] C:\Users\rnedumar\.gradle\caches\transforms-1\files-1.1\support-core-ui-27.1.1.aar\a975b29b05c9c4d2d88db91dedc28726\AndroidManifest.xml:17:1-22:12
MERGED from [com.android.support:support-core-utils:27.1.1] C:\Users\rnedumar\.gradle\caches\transforms-1\files-1.1\support-core-utils-27.1.1.aar\f0b5f0f52ad98e9f857c7562031aaa63\AndroidManifest.xml:17:1-22:12
MERGED from [com.android.support:support-compat:27.1.1] C:\Users\rnedumar\.gradle\caches\transforms-1\files-1.1\support-compat-27.1.1.aar\db529674bdef2f25985d23285f147199\AndroidManifest.xml:17:1-22:12
MERGED from [android.arch.lifecycle:runtime:1.1.0] C:\Users\rnedumar\.gradle\caches\transforms-1\files-1.1\runtime-1.1.0.aar\1f5832bd1b245c7d48ff57dc1f3e7e23\AndroidManifest.xml:17:1-22:12
MERGED from [android.arch.lifecycle:livedata-core:1.1.0] C:\Users\rnedumar\.gradle\caches\transforms-1\files-1.1\livedata-core-1.1.0.aar\66cd4f1ff93ebfd57b4a0e3b5313d3d2\AndroidManifest.xml:17:1-22:12
MERGED from [android.arch.lifecycle:viewmodel:1.1.0] C:\Users\rnedumar\.gradle\caches\transforms-1\files-1.1\viewmodel-1.1.0.aar\f781195609bc3fd0da4d9c1eeb32cc39\AndroidManifest.xml:17:1-22:12
MERGED from [android.arch.core:runtime:1.1.0] C:\Users\rnedumar\.gradle\caches\transforms-1\files-1.1\runtime-1.1.0.aar\64c81ba53235dd5e45010a6713b4cd87\AndroidManifest.xml:17:1-22:12
INJECTED from C:\Samples\babylon\app\src\main\AndroidManifest.xml:2:1-26:12
INJECTED from C:\Samples\babylon\app\src\main\AndroidManifest.xml:2:1-26:12
INJECTED from C:\Samples\babylon\app\src\main\AndroidManifest.xml:2:1-26:12
	package
		ADDED from C:\Samples\babylon\app\src\main\AndroidManifest.xml:3:5-29
		INJECTED from C:\Samples\babylon\app\src\main\AndroidManifest.xml
		INJECTED from C:\Samples\babylon\app\src\main\AndroidManifest.xml
	android:versionName
		INJECTED from C:\Samples\babylon\app\src\main\AndroidManifest.xml
		ADDED from C:\Samples\babylon\app\src\main\AndroidManifest.xml:2:1-26:12
		INJECTED from C:\Samples\babylon\app\src\main\AndroidManifest.xml
	android:versionCode
		INJECTED from C:\Samples\babylon\app\src\main\AndroidManifest.xml
		ADDED from C:\Samples\babylon\app\src\main\AndroidManifest.xml:2:1-26:12
		INJECTED from C:\Samples\babylon\app\src\main\AndroidManifest.xml
	xmlns:android
		ADDED from C:\Samples\babylon\app\src\main\AndroidManifest.xml:2:11-69
uses-permission#android.permission.INTERNET
ADDED from C:\Samples\babylon\app\src\main\AndroidManifest.xml:5:5-66
	android:name
		ADDED from C:\Samples\babylon\app\src\main\AndroidManifest.xml:5:22-64
application
ADDED from C:\Samples\babylon\app\src\main\AndroidManifest.xml:7:5-24:19
MERGED from [com.android.support.constraint:constraint-layout:1.1.2] C:\Users\rnedumar\.gradle\caches\transforms-1\files-1.1\constraint-layout-1.1.2.aar\07c3c4409d2669285c582bebdd2d3547\AndroidManifest.xml:9:5-20
MERGED from [com.android.support.constraint:constraint-layout:1.1.2] C:\Users\rnedumar\.gradle\caches\transforms-1\files-1.1\constraint-layout-1.1.2.aar\07c3c4409d2669285c582bebdd2d3547\AndroidManifest.xml:9:5-20
	android:supportsRtl
		ADDED from C:\Samples\babylon\app\src\main\AndroidManifest.xml:12:9-35
	android:label
		ADDED from C:\Samples\babylon\app\src\main\AndroidManifest.xml:10:9-41
	android:roundIcon
		ADDED from C:\Samples\babylon\app\src\main\AndroidManifest.xml:11:9-54
	android:icon
		ADDED from C:\Samples\babylon\app\src\main\AndroidManifest.xml:9:9-43
	android:allowBackup
		ADDED from C:\Samples\babylon\app\src\main\AndroidManifest.xml:8:9-35
	android:theme
		ADDED from C:\Samples\babylon\app\src\main\AndroidManifest.xml:13:9-40
activity#com.healthcare.activities.DashBoard
ADDED from C:\Samples\babylon\app\src\main\AndroidManifest.xml:14:9-20:20
	android:name
		ADDED from C:\Samples\babylon\app\src\main\AndroidManifest.xml:14:19-55
intent-filter#action:name:android.intent.action.MAIN+category:name:android.intent.category.LAUNCHER
ADDED from C:\Samples\babylon\app\src\main\AndroidManifest.xml:15:13-19:29
action#android.intent.action.MAIN
ADDED from C:\Samples\babylon\app\src\main\AndroidManifest.xml:16:17-69
	android:name
		ADDED from C:\Samples\babylon\app\src\main\AndroidManifest.xml:16:25-66
category#android.intent.category.LAUNCHER
ADDED from C:\Samples\babylon\app\src\main\AndroidManifest.xml:18:17-77
	android:name
		ADDED from C:\Samples\babylon\app\src\main\AndroidManifest.xml:18:27-74
activity#com.healthcare.activities.ChatMainActivity
ADDED from C:\Samples\babylon\app\src\main\AndroidManifest.xml:21:9-22:20
	android:name
		ADDED from C:\Samples\babylon\app\src\main\AndroidManifest.xml:21:19-62
activity#com.healthcare.activities.ChatBotActivity
ADDED from C:\Samples\babylon\app\src\main\AndroidManifest.xml:23:9-73
	android:name
		ADDED from C:\Samples\babylon\app\src\main\AndroidManifest.xml:23:19-61
uses-sdk
INJECTED from C:\Samples\babylon\app\src\main\AndroidManifest.xml reason: use-sdk injection requested
INJECTED from C:\Samples\babylon\app\src\main\AndroidManifest.xml
INJECTED from C:\Samples\babylon\app\src\main\AndroidManifest.xml
MERGED from [com.android.support:design:27.1.0] C:\Users\rnedumar\.gradle\caches\transforms-1\files-1.1\design-27.1.0.aar\55dc3e4792178b9299c691c7a078a732\AndroidManifest.xml:20:5-44
MERGED from [com.android.support:design:27.1.0] C:\Users\rnedumar\.gradle\caches\transforms-1\files-1.1\design-27.1.0.aar\55dc3e4792178b9299c691c7a078a732\AndroidManifest.xml:20:5-44
MERGED from [com.android.support:appcompat-v7:27.1.1] C:\Users\rnedumar\.gradle\caches\transforms-1\files-1.1\appcompat-v7-27.1.1.aar\0b81465e7903dfa3812850c67ee4aaa1\AndroidManifest.xml:20:5-44
MERGED from [com.android.support:appcompat-v7:27.1.1] C:\Users\rnedumar\.gradle\caches\transforms-1\files-1.1\appcompat-v7-27.1.1.aar\0b81465e7903dfa3812850c67ee4aaa1\AndroidManifest.xml:20:5-44
MERGED from [com.android.support.constraint:constraint-layout:1.1.2] C:\Users\rnedumar\.gradle\caches\transforms-1\files-1.1\constraint-layout-1.1.2.aar\07c3c4409d2669285c582bebdd2d3547\AndroidManifest.xml:5:5-7:41
MERGED from [com.android.support.constraint:constraint-layout:1.1.2] C:\Users\rnedumar\.gradle\caches\transforms-1\files-1.1\constraint-layout-1.1.2.aar\07c3c4409d2669285c582bebdd2d3547\AndroidManifest.xml:5:5-7:41
MERGED from [com.android.support:cardview-v7:27.1.1] C:\Users\rnedumar\.gradle\caches\transforms-1\files-1.1\cardview-v7-27.1.1.aar\dd8ba7903e3bb86f20883e078aa971a2\AndroidManifest.xml:20:5-44
MERGED from [com.android.support:cardview-v7:27.1.1] C:\Users\rnedumar\.gradle\caches\transforms-1\files-1.1\cardview-v7-27.1.1.aar\dd8ba7903e3bb86f20883e078aa971a2\AndroidManifest.xml:20:5-44
MERGED from [com.android.support:support-v4:27.1.0] C:\Users\rnedumar\.gradle\caches\transforms-1\files-1.1\support-v4-27.1.0.aar\887b3197ad5967848fb5eb17adb8645d\AndroidManifest.xml:20:5-44
MERGED from [com.android.support:support-v4:27.1.0] C:\Users\rnedumar\.gradle\caches\transforms-1\files-1.1\support-v4-27.1.0.aar\887b3197ad5967848fb5eb17adb8645d\AndroidManifest.xml:20:5-44
MERGED from [com.android.support:recyclerview-v7:27.1.0] C:\Users\rnedumar\.gradle\caches\transforms-1\files-1.1\recyclerview-v7-27.1.0.aar\555a47c2d6088ea314aeda257d0a7278\AndroidManifest.xml:20:5-44
MERGED from [com.android.support:recyclerview-v7:27.1.0] C:\Users\rnedumar\.gradle\caches\transforms-1\files-1.1\recyclerview-v7-27.1.0.aar\555a47c2d6088ea314aeda257d0a7278\AndroidManifest.xml:20:5-44
MERGED from [com.android.support:transition:27.1.0] C:\Users\rnedumar\.gradle\caches\transforms-1\files-1.1\transition-27.1.0.aar\aa0becf27235ebe5982931c4167c8d3f\AndroidManifest.xml:20:5-44
MERGED from [com.android.support:transition:27.1.0] C:\Users\rnedumar\.gradle\caches\transforms-1\files-1.1\transition-27.1.0.aar\aa0becf27235ebe5982931c4167c8d3f\AndroidManifest.xml:20:5-44
MERGED from [com.android.support:support-media-compat:27.1.0] C:\Users\rnedumar\.gradle\caches\transforms-1\files-1.1\support-media-compat-27.1.0.aar\8f5a8286efb61c13ad464b71321d6f85\AndroidManifest.xml:20:5-44
MERGED from [com.android.support:support-media-compat:27.1.0] C:\Users\rnedumar\.gradle\caches\transforms-1\files-1.1\support-media-compat-27.1.0.aar\8f5a8286efb61c13ad464b71321d6f85\AndroidManifest.xml:20:5-44
MERGED from [com.android.support:animated-vector-drawable:27.1.1] C:\Users\rnedumar\.gradle\caches\transforms-1\files-1.1\animated-vector-drawable-27.1.1.aar\deaa395a88113fc9b677b6ac4e70ef51\AndroidManifest.xml:20:5-44
MERGED from [com.android.support:animated-vector-drawable:27.1.1] C:\Users\rnedumar\.gradle\caches\transforms-1\files-1.1\animated-vector-drawable-27.1.1.aar\deaa395a88113fc9b677b6ac4e70ef51\AndroidManifest.xml:20:5-44
MERGED from [com.android.support:support-vector-drawable:27.1.1] C:\Users\rnedumar\.gradle\caches\transforms-1\files-1.1\support-vector-drawable-27.1.1.aar\4f4992cda542fd844f737984031220e4\AndroidManifest.xml:20:5-44
MERGED from [com.android.support:support-vector-drawable:27.1.1] C:\Users\rnedumar\.gradle\caches\transforms-1\files-1.1\support-vector-drawable-27.1.1.aar\4f4992cda542fd844f737984031220e4\AndroidManifest.xml:20:5-44
MERGED from [com.android.support:support-fragment:27.1.1] C:\Users\rnedumar\.gradle\caches\transforms-1\files-1.1\support-fragment-27.1.1.aar\e3d07f5b88569d9a8126563661949de1\AndroidManifest.xml:20:5-44
MERGED from [com.android.support:support-fragment:27.1.1] C:\Users\rnedumar\.gradle\caches\transforms-1\files-1.1\support-fragment-27.1.1.aar\e3d07f5b88569d9a8126563661949de1\AndroidManifest.xml:20:5-44
MERGED from [com.android.support:support-core-ui:27.1.1] C:\Users\rnedumar\.gradle\caches\transforms-1\files-1.1\support-core-ui-27.1.1.aar\a975b29b05c9c4d2d88db91dedc28726\AndroidManifest.xml:20:5-44
MERGED from [com.android.support:support-core-ui:27.1.1] C:\Users\rnedumar\.gradle\caches\transforms-1\files-1.1\support-core-ui-27.1.1.aar\a975b29b05c9c4d2d88db91dedc28726\AndroidManifest.xml:20:5-44
MERGED from [com.android.support:support-core-utils:27.1.1] C:\Users\rnedumar\.gradle\caches\transforms-1\files-1.1\support-core-utils-27.1.1.aar\f0b5f0f52ad98e9f857c7562031aaa63\AndroidManifest.xml:20:5-44
MERGED from [com.android.support:support-core-utils:27.1.1] C:\Users\rnedumar\.gradle\caches\transforms-1\files-1.1\support-core-utils-27.1.1.aar\f0b5f0f52ad98e9f857c7562031aaa63\AndroidManifest.xml:20:5-44
MERGED from [com.android.support:support-compat:27.1.1] C:\Users\rnedumar\.gradle\caches\transforms-1\files-1.1\support-compat-27.1.1.aar\db529674bdef2f25985d23285f147199\AndroidManifest.xml:20:5-44
MERGED from [com.android.support:support-compat:27.1.1] C:\Users\rnedumar\.gradle\caches\transforms-1\files-1.1\support-compat-27.1.1.aar\db529674bdef2f25985d23285f147199\AndroidManifest.xml:20:5-44
MERGED from [android.arch.lifecycle:runtime:1.1.0] C:\Users\rnedumar\.gradle\caches\transforms-1\files-1.1\runtime-1.1.0.aar\1f5832bd1b245c7d48ff57dc1f3e7e23\AndroidManifest.xml:20:5-44
MERGED from [android.arch.lifecycle:runtime:1.1.0] C:\Users\rnedumar\.gradle\caches\transforms-1\files-1.1\runtime-1.1.0.aar\1f5832bd1b245c7d48ff57dc1f3e7e23\AndroidManifest.xml:20:5-44
MERGED from [android.arch.lifecycle:livedata-core:1.1.0] C:\Users\rnedumar\.gradle\caches\transforms-1\files-1.1\livedata-core-1.1.0.aar\66cd4f1ff93ebfd57b4a0e3b5313d3d2\AndroidManifest.xml:20:5-44
MERGED from [android.arch.lifecycle:livedata-core:1.1.0] C:\Users\rnedumar\.gradle\caches\transforms-1\files-1.1\livedata-core-1.1.0.aar\66cd4f1ff93ebfd57b4a0e3b5313d3d2\AndroidManifest.xml:20:5-44
MERGED from [android.arch.lifecycle:viewmodel:1.1.0] C:\Users\rnedumar\.gradle\caches\transforms-1\files-1.1\viewmodel-1.1.0.aar\f781195609bc3fd0da4d9c1eeb32cc39\AndroidManifest.xml:20:5-44
MERGED from [android.arch.lifecycle:viewmodel:1.1.0] C:\Users\rnedumar\.gradle\caches\transforms-1\files-1.1\viewmodel-1.1.0.aar\f781195609bc3fd0da4d9c1eeb32cc39\AndroidManifest.xml:20:5-44
MERGED from [android.arch.core:runtime:1.1.0] C:\Users\rnedumar\.gradle\caches\transforms-1\files-1.1\runtime-1.1.0.aar\64c81ba53235dd5e45010a6713b4cd87\AndroidManifest.xml:20:5-44
MERGED from [android.arch.core:runtime:1.1.0] C:\Users\rnedumar\.gradle\caches\transforms-1\files-1.1\runtime-1.1.0.aar\64c81ba53235dd5e45010a6713b4cd87\AndroidManifest.xml:20:5-44
INJECTED from C:\Samples\babylon\app\src\main\AndroidManifest.xml
INJECTED from C:\Samples\babylon\app\src\main\AndroidManifest.xml
	android:targetSdkVersion
		INJECTED from C:\Samples\babylon\app\src\main\AndroidManifest.xml
		ADDED from C:\Samples\babylon\app\src\main\AndroidManifest.xml
		INJECTED from C:\Samples\babylon\app\src\main\AndroidManifest.xml
	android:minSdkVersion
		INJECTED from C:\Samples\babylon\app\src\main\AndroidManifest.xml
		ADDED from C:\Samples\babylon\app\src\main\AndroidManifest.xml
		INJECTED from C:\Samples\babylon\app\src\main\AndroidManifest.xml
